Laboratorio 1/Informe/sumador4bits/top.vcd
$date
	Tue Oct 10 21:09:52 2023
$end
$version
	Icarus Verilog
$end
$timescale
	1s
$end
$scope module testbech $end
$var wire 5 ! outs [4:0] $end
$var reg 8 " inputs [7:0] $end
$var integer 32 # i [31:0] $end
$scope module dut $end
$var wire 1 $ in_a0 $end
$var wire 1 % in_a1 $end
$var wire 1 & in_a2 $end
$var wire 1 ' in_a3 $end
$var wire 1 ( in_b0 $end
$var wire 1 ) in_b1 $end
$var wire 1 * in_b2 $end
$var wire 1 + in_b3 $end
$var wire 1 , out_s4 $end
$var wire 1 - out_s3 $end
$var wire 1 . out_s2 $end
$var wire 1 / out_s1 $end
$var wire 1 0 out_s0 $end
$var wire 1 1 co_s3_to_ci_s4 $end
$var wire 1 2 co_s2_to_ci_s3 $end
$var wire 1 3 co_s1_to_ci_s2 $end
$scope module fulladder1 $end
$var wire 1 $ in_a $end
$var wire 1 ( in_b $end
$var wire 1 4 in_ci $end
$var wire 1 3 out_co $end
$var wire 1 5 s_s1_to_b_s2 $end
$var wire 1 0 out_s $end
$var wire 1 6 co_s2_to_or $end
$var wire 1 7 co_s1_to_or $end
$scope module halfadder1 $end
$var wire 1 $ a $end
$var wire 1 ( b $end
$var wire 1 7 co $end
$var wire 1 5 s $end
$upscope $end
$scope module halfadder2 $end
$var wire 1 4 a $end
$var wire 1 5 b $end
$var wire 1 6 co $end
$var wire 1 0 s $end
$upscope $end
$upscope $end
$scope module fulladder2 $end
$var wire 1 % in_a $end
$var wire 1 ) in_b $end
$var wire 1 3 in_ci $end
$var wire 1 2 out_co $end
$var wire 1 8 s_s1_to_b_s2 $end
$var wire 1 / out_s $end
$var wire 1 9 co_s2_to_or $end
$var wire 1 : co_s1_to_or $end
$scope module halfadder1 $end
$var wire 1 % a $end
$var wire 1 ) b $end
$var wire 1 : co $end
$var wire 1 8 s $end
$upscope $end
$scope module halfadder2 $end
$var wire 1 3 a $end
$var wire 1 8 b $end
$var wire 1 9 co $end
$var wire 1 / s $end
$upscope $end
$upscope $end
$scope module fulladder3 $end
$var wire 1 & in_a $end
$var wire 1 * in_b $end
$var wire 1 2 in_ci $end
$var wire 1 1 out_co $end
$var wire 1 ; s_s1_to_b_s2 $end
$var wire 1 . out_s $end
$var wire 1 < co_s2_to_or $end
$var wire 1 = co_s1_to_or $end
$scope module halfadder1 $end
$var wire 1 & a $end
$var wire 1 * b $end
$var wire 1 = co $end
$var wire 1 ; s $end
$upscope $end
$scope module halfadder2 $end
$var wire 1 2 a $end
$var wire 1 ; b $end
$var wire 1 < co $end
$var wire 1 . s $end
$upscope $end
$upscope $end
$scope module fulladder4 $end
$var wire 1 ' in_a $end
$var wire 1 + in_b $end
$var wire 1 1 in_ci $end
$var wire 1 , out_co $end
$var wire 1 > s_s1_to_b_s2 $end
$var wire 1 - out_s $end
$var wire 1 ? co_s2_to_or $end
$var wire 1 @ co_s1_to_or $end
$scope module halfadder1 $end
$var wire 1 ' a $end
$var wire 1 + b $end
$var wire 1 @ co $end
$var wire 1 > s $end
$upscope $end
$scope module halfadder2 $end
$var wire 1 1 a $end
$var wire 1 > b $end
$var wire 1 ? co $end
$var wire 1 - s $end
$upscope $end
$upscope $end
$upscope $end
$upscope $end
$enddefinitions $end
$comment Show the parameter values. $end
$dumpall
$end
#0
$dumpvars
0@
0?
0>
0=
0<
0;
0:
09
08
07
06
05
04
03
02
01
00
0/
0.
0-
0,
0+
0*
0)
0(
0'
0&
0%
0$
b0 #
b0 "
b0 !
$end
#1
b1 !
10
15
1$
b1 "
b1 #
#2
1/
b10 !
00
18
05
1%
0$
b10 "
b10 #
#3
b11 !
10
15
1$
b11 "
b11 #
#4
1.
0/
b100 !
00
1;
08
05
1&
0%
0$
b100 "
b100 #
#5
b101 !
10
15
1$
b101 "
b101 #
#6
1/
b110 !
00
18
05
1%
0$
b110 "
b110 #
#7
b111 !
10
15
1$
b111 "
b111 #
#8
1-
0.
0/
b1000 !
00
1>
0;
08
05
1'
0&
0%
0$
b1000 "
b1000 #
#9
b1001 !
10
15
1$
b1001 "
b1001 #
#10
1/
b1010 !
00
18
05
1%
0$
b1010 "
b1010 #
#11
b1011 !
10
15
1$
b1011 "
b1011 #
#12
1.
0/
b1100 !
00
1;
08
05
1&
0%
0$
b1100 "
b1100 #
#13
b1101 !
10
15
1$
b1101 "
b1101 #
#14
1/
b1110 !
00
18
05
1%
0$
b1110 "
b1110 #
#15
b1111 !
10
15
1$
b1111 "
b1111 #
#16
0-
0.
b1 !
0/
0>
0;
08
0'
0&
0%
0$
1(
b10000 "
b10000 #
#17
1/
b10 !
00
13
05
17
1$
b10001 "
b10001 #
#18
b11 !
10
03
18
15
07
1%
0$
b10010 "
b10010 #
#19
1.
12
0/
19
b100 !
00
13
05
17
1$
b10011 "
b10011 #
#20
0-
01
02
1.
0<
09
b101 !
10
03
1;
08
15
07
1&
0%
0$
b10100 "
b10100 #
#21
1/
b110 !
00
13
05
17
1$
b10101 "
b10101 #
#22
b111 !
10
03
18
15
07
1%
0$
b10110 "
b10110 #
#23
1-
11
0.
1<
12
0/
19
b1000 !
00
13
05
17
1$
b10111 "
b10111 #
#24
0,
01
02
1-
0?
0.
0<
09
b1001 !
10
03
1>
0;
08
15
07
1'
0&
0%
0$
b11000 "
b11000 #
#25
1/
b1010 !
00
13
05
17
1$
b11001 "
b11001 #
#26
b1011 !
10
03
18
15
07
1%
0$
b11010 "
b11010 #
#27
1.
12
0/
19
b1100 !
00
13
05
17
1$
b11011 "
b11011 #
#28
0,
1-
0?
01
02
1.
0<
09
b1101 !
10
03
1;
08
15
07
1&
0%
0$
b11100 "
b11100 #
#29
1/
b1110 !
00
13
05
17
1$
b11101 "
b11101 #
#30
b1111 !
10
03
18
15
07
1%
0$
b11110 "
b11110 #
#31
1,
0-
1?
11
0.
1<
12
0/
19
b10000 !
00
13
05
17
1$
b11111 "
b11111 #
#32
02
0,
01
1/
09
0-
0?
b10 !
0.
0<
03
0>
0;
07
0'
0&
0%
0$
1)
0(
b100000 "
b100000 #
#33
b11 !
10
15
1$
b100001 "
b100001 #
#34
1.
0/
12
b100 !
00
08
1:
05
1%
0$
b100010 "
b100010 #
#35
b101 !
10
15
1$
b100011 "
b100011 #
#36
1/
02
b110 !
00
1;
18
0:
05
1&
0%
0$
b100100 "
b100100 #
#37
b111 !
10
15
1$
b100101 "
b100101 #
#38
1-
11
0.
1<
0/
12
b1000 !
00
08
1:
05
1%
0$
b100110 "
b100110 #
#39
b1001 !
10
15
1$
b100111 "
b100111 #
#40
0,
01
1-
0?
0<
1/
02
b1010 !
00
1>
0;
18
0:
05
1'
0&
0%
0$
b101000 "
b101000 #
#41
b1011 !
10
15
1$
b101001 "
b101001 #
#42
1.
0/
12
b1100 !
00
08
1:
05
1%
0$
b101010 "
b101010 #
#43
b1101 !
10
15
1$
b101011 "
b101011 #
#44
1/
02
b1110 !
00
1;
18
0:
05
1&
0%
0$
b101100 "
b101100 #
#45
b1111 !
10
15
1$
b101101 "
b101101 #
#46
1,
0-
1?
11
0.
1<
0/
12
b10000 !
00
08
1:
05
1%
0$
b101110 "
b101110 #
#47
b10001 !
10
15
1$
b101111 "
b101111 #
#48
0,
01
0-
0?
0<
b11 !
1/
02
0>
0;
18
0:
0'
0&
0%
0$
1(
b110000 "
b110000 #
#49
1.
12
0/
19
b100 !
00
13
05
17
1$
b110001 "
b110001 #
#50
09
b101 !
10
03
08
1:
15
07
1%
0$
b110010 "
b110010 #
#51
1/
b110 !
00
13
05
17
1$
b110011 "
b110011 #
#52
02
b111 !
10
03
1;
18
0:
15
07
1&
0%
0$
b110100 "
b110100 #
#53
1-
11
0.
1<
12
0/
19
b1000 !
00
13
05
17
1$
b110101 "
b110101 #
#54
09
b1001 !
10
03
08
1:
15
07
1%
0$
b110110 "
b110110 #
#55
1/
b1010 !
00
13
05
17
1$
b110111 "
b110111 #
#56
0,
01
1-
0?
0<
02
b1011 !
10
03
1>
0;
18
0:
15
07
1'
0&
0%
0$
b111000 "
b111000 #
#57
1.
12
0/
19
b1100 !
00
13
05
17
1$
b111001 "
b111001 #
#58
09
b1101 !
10
03
08
1:
15
07
1%
0$
b111010 "
b111010 #
#59
1/
b1110 !
00
13
05
17
1$
b111011 "
b111011 #
#60
02
b1111 !
10
03
1;
18
0:
15
07
1&
0%
0$
b111100 "
b111100 #
#61
1,
0-
1?
11
0.
1<
12
0/
19
b10000 !
00
13
05
17
1$
b111101 "
b111101 #
#62
09
b10001 !
10
03
08
1:
15
07
1%
0$
b111110 "
b111110 #
#63
1/
b10010 !
00
13
05
17
1$
b111111 "
b111111 #
#64
01
0,
1.
0<
0/
b100 !
0-
0?
02
03
0>
0:
07
0'
0&
0%
0$
1*
0)
0(
b1000000 "
b1000000 #
#65
b101 !
10
15
1$
b1000001 "
b1000001 #
#66
1/
b110 !
00
18
05
1%
0$
b1000010 "
b1000010 #
#67
b111 !
10
15
1$
b1000011 "
b1000011 #
#68
1-
0.
11
0/
b1000 !
00
0;
1=
08
05
1&
0%
0$
b1000100 "
b1000100 #
#69
b1001 !
10
15
1$
b1000101 "
b1000101 #
#70
1/
b1010 !
00
18
05
1%
0$
b1000110 "
b1000110 #
#71
b1011 !
10
15
1$
b1000111 "
b1000111 #
#72
1.
01
0/
b1100 !
00
1>
1;
0=
08
05
1'
0&
0%
0$
b1001000 "
b1001000 #
#73
b1101 !
10
15
1$
b1001001 "
b1001001 #
#74
1/
b1110 !
00
18
05
1%
0$
b1001010 "
b1001010 #
#75
b1111 !
10
15
1$
b1001011 "
b1001011 #
#76
1,
0-
1?
0.
11
0/
b10000 !
00
0;
1=
08
05
1&
0%
0$
b1001100 "
b1001100 #
#77
b10001 !
10
15
1$
b1001101 "
b1001101 #
#78
1/
b10010 !
00
18
05
1%
0$
b1001110 "
b1001110 #
#79
b10011 !
10
15
1$
b1001111 "
b1001111 #
#80
0,
0?
1.
01
b101 !
0/
0>
1;
0=
08
0'
0&
0%
0$
1(
b1010000 "
b1010000 #
#81
1/
b110 !
00
13
05
17
1$
b1010001 "
b1010001 #
#82
b111 !
10
03
18
15
07
1%
0$
b1010010 "
b1010010 #
#83
1-
11
0.
1<
12
0/
19
b1000 !
00
13
05
17
1$
b1010011 "
b1010011 #
#84
02
0.
0<
09
b1001 !
10
03
0;
1=
08
15
07
1&
0%
0$
b1010100 "
b1010100 #
#85
1/
b1010 !
00
13
05
17
1$
b1010101 "
b1010101 #
#86
b1011 !
10
03
18
15
07
1%
0$
b1010110 "
b1010110 #
#87
1.
12
0/
19
b1100 !
00
13
05
17
1$
b1010111 "
b1010111 #
#88
0,
1-
0?
02
1.
0<
01
09
b1101 !
10
03
1>
1;
0=
08
15
07
1'
0&
0%
0$
b1011000 "
b1011000 #
#89
1/
b1110 !
00
13
05
17
1$
b1011001 "
b1011001 #
#90
b1111 !
10
03
18
15
07
1%
0$
b1011010 "
b1011010 #
#91
1,
0-
1?
11
0.
1<
12
0/
19
b10000 !
00
13
05
17
1$
b1011011 "
b1011011 #
#92
02
0.
0<
09
b10001 !
10
03
0;
1=
08
15
07
1&
0%
0$
b1011100 "
b1011100 #
#93
1/
b10010 !
00
13
05
17
1$
b1011101 "
b1011101 #
#94
b10011 !
10
03
18
15
07
1%
0$
b1011110 "
b1011110 #
#95
1.
12
0/
19
b10100 !
00
13
05
17
1$
b1011111 "
b1011111 #
#96
0-
02
0,
1/
09
0?
b110 !
1.
0<
01
03
0>
1;
0=
07
0'
0&
0%
0$
1)
0(
b1100000 "
b1100000 #
#97
b111 !
10
15
1$
b1100001 "
b1100001 #
#98
1-
11
0.
1<
0/
12
b1000 !
00
08
1:
05
1%
0$
b1100010 "
b1100010 #
#99
b1001 !
10
15
1$
b1100011 "
b1100011 #
#100
0<
1/
02
b1010 !
00
0;
1=
18
0:
05
1&
0%
0$
b1100100 "
b1100100 #
#101
b1011 !
10
15
1$
b1100101 "
b1100101 #
#102
1.
0/
12
b1100 !
00
08
1:
05
1%
0$
b1100110 "
b1100110 #
#103
b1101 !
10
15
1$
b1100111 "
b1100111 #
#104
01
1/
02
b1110 !
00
1>
1;
0=
18
0:
05
1'
0&
0%
0$
b1101000 "
b1101000 #
#105
b1111 !
10
15
1$
b1101001 "
b1101001 #
#106
1,
0-
1?
11
0.
1<
0/
12
b10000 !
00
08
1:
05
1%
0$
b1101010 "
b1101010 #
#107
b10001 !
10
15
1$
b1101011 "
b1101011 #
#108
0<
1/
02
b10010 !
00
0;
1=
18
0:
05
1&
0%
0$
b1101100 "
b1101100 #
#109
b10011 !
10
15
1$
b1101101 "
b1101101 #
#110
1.
0/
12
b10100 !
00
08
1:
05
1%
0$
b1101110 "
b1101110 #
#111
b10101 !
10
15
1$
b1101111 "
b1101111 #
#112
0,
0?
01
b111 !
1/
02
0>
1;
0=
18
0:
0'
0&
0%
0$
1(
b1110000 "
b1110000 #
#113
1-
11
0.
1<
12
0/
19
b1000 !
00
13
05
17
1$
b1110001 "
b1110001 #
#114
09
b1001 !
10
03
08
1:
15
07
1%
0$
b1110010 "
b1110010 #
#115
1/
b1010 !
00
13
05
17
1$
b1110011 "
b1110011 #
#116
0<
02
b1011 !
10
03
0;
1=
18
0:
15
07
1&
0%
0$
b1110100 "
b1110100 #
#117
1.
12
0/
19
b1100 !
00
13
05
17
1$
b1110101 "
b1110101 #
#118
09
b1101 !
10
03
08
1:
15
07
1%
0$
b1110110 "
b1110110 #
#119
1/
b1110 !
00
13
05
17
1$
b1110111 "
b1110111 #
#120
01
02
b1111 !
10
03
1>
1;
0=
18
0:
15
07
1'
0&
0%
0$
b1111000 "
b1111000 #
#121
1,
0-
1?
11
0.
1<
12
0/
19
b10000 !
00
13
05
17
1$
b1111001 "
b1111001 #
#122
09
b10001 !
10
03
08
1:
15
07
1%
0$
b1111010 "
b1111010 #
#123
1/
b10010 !
00
13
05
17
1$
b1111011 "
b1111011 #
#124
0<
02
b10011 !
10
03
0;
1=
18
0:
15
07
1&
0%
0$
b1111100 "
b1111100 #
#125
1.
12
0/
19
b10100 !
00
13
05
17
1$
b1111101 "
b1111101 #
#126
09
b10101 !
10
03
08
1:
15
07
1%
0$
b1111110 "
b1111110 #
#127
1/
b10110 !
00
13
05
17
1$
b1111111 "
b1111111 #
#128
0,
1-
0?
0.
b1000 !
0/
01
02
03
0=
0:
07
0'
0&
0%
0$
1+
0*
0)
0(
b10000000 "
b10000000 #
#129
b1001 !
10
15
1$
b10000001 "
b10000001 #
#130
1/
b1010 !
00
18
05
1%
0$
b10000010 "
b10000010 #
#131
b1011 !
10
15
1$
b10000011 "
b10000011 #
#132
1.
0/
b1100 !
00
1;
08
05
1&
0%
0$
b10000100 "
b10000100 #
#133
b1101 !
10
15
1$
b10000101 "
b10000101 #
#134
1/
b1110 !
00
18
05
1%
0$
b10000110 "
b10000110 #
#135
b1111 !
10
15
1$
b10000111 "
b10000111 #
#136
0-
1,
0.
0/
b10000 !
00
0>
1@
0;
08
05
1'
0&
0%
0$
b10001000 "
b10001000 #
#137
b10001 !
10
15
1$
b10001001 "
b10001001 #
#138
1/
b10010 !
00
18
05
1%
0$
b10001010 "
b10001010 #
#139
b10011 !
10
15
1$
b10001011 "
b10001011 #
#140
1.
0/
b10100 !
00
1;
08
05
1&
0%
0$
b10001100 "
b10001100 #
#141
b10101 !
10
15
1$
b10001101 "
b10001101 #
#142
1/
b10110 !
00
18
05
1%
0$
b10001110 "
b10001110 #
#143
b10111 !
10
15
1$
b10001111 "
b10001111 #
#144
1-
0,
0.
b1001 !
0/
1>
0@
0;
08
0'
0&
0%
0$
1(
b10010000 "
b10010000 #
#145
1/
b1010 !
00
13
05
17
1$
b10010001 "
b10010001 #
#146
b1011 !
10
03
18
15
07
1%
0$
b10010010 "
b10010010 #
#147
1.
12
0/
19
b1100 !
00
13
05
17
1$
b10010011 "
b10010011 #
#148
0,
1-
0?
01
02
1.
0<
09
b1101 !
10
03
1;
08
15
07
1&
0%
0$
b10010100 "
b10010100 #
#149
1/
b1110 !
00
13
05
17
1$
b10010101 "
b10010101 #
#150
b1111 !
10
03
18
15
07
1%
0$
b10010110 "
b10010110 #
#151
1,
0-
1?
11
0.
1<
12
0/
19
b10000 !
00
13
05
17
1$
b10010111 "
b10010111 #
#152
01
02
0-
0?
0.
0<
09
b10001 !
10
03
0>
1@
0;
08
15
07
1'
0&
0%
0$
b10011000 "
b10011000 #
#153
1/
b10010 !
00
13
05
17
1$
b10011001 "
b10011001 #
#154
b10011 !
10
03
18
15
07
1%
0$
b10011010 "
b10011010 #
#155
1.
12
0/
19
b10100 !
00
13
05
17
1$
b10011011 "
b10011011 #
#156
0-
01
02
1.
0<
09
b10101 !
10
03
1;
08
15
07
1&
0%
0$
b10011100 "
b10011100 #
#157
1/
b10110 !
00
13
05
17
1$
b10011101 "
b10011101 #
#158
b10111 !
10
03
18
15
07
1%
0$
b10011110 "
b10011110 #
#159
1-
11
0.
1<
12
0/
19
b11000 !
00
13
05
17
1$
b10011111 "
b10011111 #
#160
02
01
1/
09
1-
0?
0,
b1010 !
0.
0<
03
1>
0@
0;
07
0'
0&
0%
0$
1)
0(
b10100000 "
b10100000 #
#161
b1011 !
10
15
1$
b10100001 "
b10100001 #
#162
1.
0/
12
b1100 !
00
08
1:
05
1%
0$
b10100010 "
b10100010 #
#163
b1101 !
10
15
1$
b10100011 "
b10100011 #
#164
1/
02
b1110 !
00
1;
18
0:
05
1&
0%
0$
b10100100 "
b10100100 #
#165
b1111 !
10
15
1$
b10100101 "
b10100101 #
#166
1,
0-
1?
11
0.
1<
0/
12
b10000 !
00
08
1:
05
1%
0$
b10100110 "
b10100110 #
#167
b10001 !
10
15
1$
b10100111 "
b10100111 #
#168
01
0-
0?
0<
1/
02
b10010 !
00
0>
1@
0;
18
0:
05
1'
0&
0%
0$
b10101000 "
b10101000 #
#169
b10011 !
10
15
1$
b10101001 "
b10101001 #
#170
1.
0/
12
b10100 !
00
08
1:
05
1%
0$
b10101010 "
b10101010 #
#171
b10101 !
10
15
1$
b10101011 "
b10101011 #
#172
1/
02
b10110 !
00
1;
18
0:
05
1&
0%
0$
b10101100 "
b10101100 #
#173
b10111 !
10
15
1$
b10101101 "
b10101101 #
#174
1-
11
0.
1<
0/
12
b11000 !
00
08
1:
05
1%
0$
b10101110 "
b10101110 #
#175
b11001 !
10
15
1$
b10101111 "
b10101111 #
#176
01
1-
0?
0,
0<
b1011 !
1/
02
1>
0@
0;
18
0:
0'
0&
0%
0$
1(
b10110000 "
b10110000 #
#177
1.
12
0/
19
b1100 !
00
13
05
17
1$
b10110001 "
b10110001 #
#178
09
b1101 !
10
03
08
1:
15
07
1%
0$
b10110010 "
b10110010 #
#179
1/
b1110 !
00
13
05
17
1$
b10110011 "
b10110011 #
#180
02
b1111 !
10
03
1;
18
0:
15
07
1&
0%
0$
b10110100 "
b10110100 #
#181
1,
0-
1?
11
0.
1<
12
0/
19
b10000 !
00
13
05
17
1$
b10110101 "
b10110101 #
#182
09
b10001 !
10
03
08
1:
15
07
1%
0$
b10110110 "
b10110110 #
#183
1/
b10010 !
00
13
05
17
1$
b10110111 "
b10110111 #
#184
01
0-
0?
0<
02
b10011 !
10
03
0>
1@
0;
18
0:
15
07
1'
0&
0%
0$
b10111000 "
b10111000 #
#185
1.
12
0/
19
b10100 !
00
13
05
17
1$
b10111001 "
b10111001 #
#186
09
b10101 !
10
03
08
1:
15
07
1%
0$
b10111010 "
b10111010 #
#187
1/
b10110 !
00
13
05
17
1$
b10111011 "
b10111011 #
#188
02
b10111 !
10
03
1;
18
0:
15
07
1&
0%
0$
b10111100 "
b10111100 #
#189
1-
11
0.
1<
12
0/
19
b11000 !
00
13
05
17
1$
b10111101 "
b10111101 #
#190
09
b11001 !
10
03
08
1:
15
07
1%
0$
b10111110 "
b10111110 #
#191
1/
b11010 !
00
13
05
17
1$
b10111111 "
b10111111 #
#192
01
1.
0<
0/
1-
0?
b1100 !
0,
02
03
1>
0@
0:
07
0'
0&
0%
0$
1*
0)
0(
b11000000 "
b11000000 #
#193
b1101 !
10
15
1$
b11000001 "
b11000001 #
#194
1/
b1110 !
00
18
05
1%
0$
b11000010 "
b11000010 #
#195
b1111 !
10
15
1$
b11000011 "
b11000011 #
#196
1,
0-
1?
0.
11
0/
b10000 !
00
0;
1=
08
05
1&
0%
0$
b11000100 "
b11000100 #
#197
b10001 !
10
15
1$
b11000101 "
b11000101 #
#198
1/
b10010 !
00
18
05
1%
0$
b11000110 "
b11000110 #
#199
b10011 !
10
15
1$
b11000111 "
b11000111 #
#200
0?
1.
01
0/
b10100 !
00
0>
1@
1;
0=
08
05
1'
0&
0%
0$
b11001000 "
b11001000 #
#201
b10101 !
10
15
1$
b11001001 "
b11001001 #
#202
1/
b10110 !
00
18
05
1%
0$
b11001010 "
b11001010 #
#203
b10111 !
10
15
1$
b11001011 "
b11001011 #
#204
1-
0.
11
0/
b11000 !
00
0;
1=
08
05
1&
0%
0$
b11001100 "
b11001100 #
#205
b11001 !
10
15
1$
b11001101 "
b11001101 #
#206
1/
b11010 !
00
18
05
1%
0$
b11001110 "
b11001110 #
#207
b11011 !
10
15
1$
b11001111 "
b11001111 #
#208
0,
1.
01
b1101 !
0/
1>
0@
1;
0=
08
0'
0&
0%
0$
1(
b11010000 "
b11010000 #
#209
1/
b1110 !
00
13
05
17
1$
b11010001 "
b11010001 #
#210
b1111 !
10
03
18
15
07
1%
0$
b11010010 "
b11010010 #
#211
1,
0-
1?
11
0.
1<
12
0/
19
b10000 !
00
13
05
17
1$
b11010011 "
b11010011 #
#212
02
0.
0<
09
b10001 !
10
03
0;
1=
08
15
07
1&
0%
0$
b11010100 "
b11010100 #
#213
1/
b10010 !
00
13
05
17
1$
b11010101 "
b11010101 #
#214
b10011 !
10
03
18
15
07
1%
0$
b11010110 "
b11010110 #
#215
1.
12
0/
19
b10100 !
00
13
05
17
1$
b11010111 "
b11010111 #
#216
0-
02
0?
1.
0<
01
09
b10101 !
10
03
0>
1@
1;
0=
08
15
07
1'
0&
0%
0$
b11011000 "
b11011000 #
#217
1/
b10110 !
00
13
05
17
1$
b11011001 "
b11011001 #
#218
b10111 !
10
03
18
15
07
1%
0$
b11011010 "
b11011010 #
#219
1-
11
0.
1<
12
0/
19
b11000 !
00
13
05
17
1$
b11011011 "
b11011011 #
#220
02
0.
0<
09
b11001 !
10
03
0;
1=
08
15
07
1&
0%
0$
b11011100 "
b11011100 #
#221
1/
b11010 !
00
13
05
17
1$
b11011101 "
b11011101 #
#222
b11011 !
10
03
18
15
07
1%
0$
b11011110 "
b11011110 #
#223
1.
12
0/
19
b11100 !
00
13
05
17
1$
b11011111 "
b11011111 #
#224
1-
0?
02
1/
09
0,
b1110 !
1.
0<
01
03
1>
0@
1;
0=
07
0'
0&
0%
0$
1)
0(
b11100000 "
b11100000 #
#225
b1111 !
10
15
1$
b11100001 "
b11100001 #
#226
1,
0-
1?
11
0.
1<
0/
12
b10000 !
00
08
1:
05
1%
0$
b11100010 "
b11100010 #
#227
b10001 !
10
15
1$
b11100011 "
b11100011 #
#228
0<
1/
02
b10010 !
00
0;
1=
18
0:
05
1&
0%
0$
b11100100 "
b11100100 #
#229
b10011 !
10
15
1$
b11100101 "
b11100101 #
#230
1.
0/
12
b10100 !
00
08
1:
05
1%
0$
b11100110 "
b11100110 #
#231
b10101 !
10
15
1$
b11100111 "
b11100111 #
#232
0?
01
1/
02
b10110 !
00
0>
1@
1;
0=
18
0:
05
1'
0&
0%
0$
b11101000 "
b11101000 #
#233
b10111 !
10
15
1$
b11101001 "
b11101001 #
#234
1-
11
0.
1<
0/
12
b11000 !
00
08
1:
05
1%
0$
b11101010 "
b11101010 #
#235
b11001 !
10
15
1$
b11101011 "
b11101011 #
#236
0<
1/
02
b11010 !
00
0;
1=
18
0:
05
1&
0%
0$
b11101100 "
b11101100 #
#237
b11011 !
10
15
1$
b11101101 "
b11101101 #
#238
1.
0/
12
b11100 !
00
08
1:
05
1%
0$
b11101110 "
b11101110 #
#239
b11101 !
10
15
1$
b11101111 "
b11101111 #
#240
0,
01
b1111 !
1/
02
1>
0@
1;
0=
18
0:
0'
0&
0%
0$
1(
b11110000 "
b11110000 #
#241
1,
0-
1?
11
0.
1<
12
0/
19
b10000 !
00
13
05
17
1$
b11110001 "
b11110001 #
#242
09
b10001 !
10
03
08
1:
15
07
1%
0$
b11110010 "
b11110010 #
#243
1/
b10010 !
00
13
05
17
1$
b11110011 "
b11110011 #
#244
0<
02
b10011 !
10
03
0;
1=
18
0:
15
07
1&
0%
0$
b11110100 "
b11110100 #
#245
1.
12
0/
19
b10100 !
00
13
05
17
1$
b11110101 "
b11110101 #
#246
09
b10101 !
10
03
08
1:
15
07
1%
0$
b11110110 "
b11110110 #
#247
1/
b10110 !
00
13
05
17
1$
b11110111 "
b11110111 #
#248
0?
01
02
b10111 !
10
03
0>
1@
1;
0=
18
0:
15
07
1'
0&
0%
0$
b11111000 "
b11111000 #
#249
1-
11
0.
1<
12
0/
19
b11000 !
00
13
05
17
1$
b11111001 "
b11111001 #
#250
09
b11001 !
10
03
08
1:
15
07
1%
0$
b11111010 "
b11111010 #
#251
1/
b11010 !
00
13
05
17
1$
b11111011 "
b11111011 #
#252
0<
02
b11011 !
10
03
0;
1=
18
0:
15
07
1&
0%
0$
b11111100 "
b11111100 #
#253
1.
12
0/
19
b11100 !
00
13
05
17
1$
b11111101 "
b11111101 #
#254
09
b11101 !
10
03
08
1:
15
07
1%
0$
b11111110 "
b11111110 #
#255
1/
b11110 !
00
13
05
17
1$
b11111111 "
b11111111 #
#256
b100000000 #
